FAQ • miplicorn
…
How can I combine multiple probe sets?

In order to combine multiple probe sets, it is first important to ensure that you plan to conduct the same analysis for each probe set. If you are not, you may want to reconsider combining multiple probe sets. Assuming you want to combine the same type of data for each probe set, you can simply bind the rows using {dplyr}.

dplyr::bind_rows(
  list(probe_1 = probe_1, probe_2 = probe_2, probe_3 = probe_3),
  .id = "probe_set"
)
#> # A tibble: 30 × 9
#>    probe_set sample   chrom pos     ref    alt   mutation_name targeted coverage
#>    <chr>     <chr>    <chr> <chr>   <chr>  <chr> <chr>         <chr>       <dbl>
#>  1 probe_1   AR-05-54 chr13 1629329 AATAA… A     chr13:162932… No              0
#>  2 probe_1   AR-05-73 chr13 1719135 A      T     chr13:171913… No             23
#>  3 probe_1   KS-05-35 chr8  495991  C      T     chr8:495991:… No              0
#>  4 probe_1   KN-05-43 chr13 1701344 TAT    A     chr13:170134… No             10
#>  5 probe_1   MU-05-69 chr13 1713479 C      T     chr13:171347… No              3
#>  6 probe_1   JI-05-82 chr13 1706967 C      A     chr13:170696… No              0
#>  7 probe_1   JI-05-28 chr13 1706000 A      G     chr13:170600… No             10
#>  8 probe_1   AG-05-28 chr13 1706978 GATTA… TATT… chr13:170697… No              0
#>  9 probe_1   AG-05-82 chr4  848676  T      A     chr4:848676:… No              0
#> 10 probe_1   KS-05-63 chr4  736960  C      T     chr4:736960:… No              0
#> # … with 20 more rows
…
