Introduction to miplicorn • miplicorn
…
As visible, there are six rows of metadata, which specify the gene ID, gene, mutation name, etc. The remaining rows contain the data we are actually interested in: the rows contain the samples and the columns contain the positions we are interested in. The difficult part of reading in these files is that the metadata must be extracted and treated differently from the data itself.

miplicorn, therefore, provides a family of functions: read_tbl_*() which quickly read in such non-rectangular files. The functions generate a tibble where each row represents a sample and a position. Thus, there will be multiple entries for each unique sample.

cov_file <- miplicorn::miplicorn_example("coverage_AA_table.csv")

data <- miplicorn::read_tbl_coverage(cov_file)
data
#> # A tibble: 6,344 × 8
#>    sample    gene_id gene  mutation_name exonic_func aa_change targeted coverage
#>    <chr>     <chr>   <chr> <chr>         <chr>       <chr>     <chr>       <dbl>
#>  1 D10-JJJ-… PF3D7_… atp6  atp6-Ala623G… missense_v… Ala623Glu Yes           608
#>  2 D10-JJJ-… PF3D7_… atp6  atp6-Ala623G… missense_v… Ala623Glu Yes            20
#>  3 D10-JJJ-… PF3D7_… atp6  atp6-Ala623G… missense_v… Ala623Glu Yes           158
#>  4 D10-JJJ-5 PF3D7_… atp6  atp6-Ala623G… missense_v… Ala623Glu Yes             2
#>  5 D10-JJJ-… PF3D7_… atp6  atp6-Ala623G… missense_v… Ala623Glu Yes             1
#>  6 D10-JJJ-… PF3D7_… atp6  atp6-Ala623G… missense_v… Ala623Glu Yes           129
#>  7 D10-JJJ-… PF3D7_… atp6  atp6-Ala623G… missense_v… Ala623Glu Yes             0
#>  8 D10-JJJ-… PF3D7_… atp6  atp6-Ala623G… missense_v… Ala623Glu Yes             0
#>  9 D10-JJJ-… PF3D7_… atp6  atp6-Ala623G… missense_v… Ala623Glu Yes            90
#> 10 D10-JJJ-… PF3D7_… atp6  atp6-Ala623G… missense_v… Ala623Glu Yes           175
#> # … with 6,334 more rows

Manipulate

Amino acids

In some the user may want to convert amino acid abbreviations from the three to one letters abbreviation, or vice versa for easier interpretation of data.

data %>%
  dplyr::mutate(aa_change = convert_three(aa_change))
#> # A tibble: 6,344 × 8
#>    sample    gene_id gene  mutation_name exonic_func aa_change targeted coverage
#>    <chr>     <chr>   <chr> <chr>         <chr>       <chr>     <chr>       <dbl>
#>  1 D10-JJJ-… PF3D7_… atp6  atp6-Ala623G… missense_v… A623E     Yes           608
#>  2 D10-JJJ-… PF3D7_… atp6  atp6-Ala623G… missense_v… A623E     Yes            20
#>  3 D10-JJJ-… PF3D7_… atp6  atp6-Ala623G… missense_v… A623E     Yes           158
#>  4 D10-JJJ-5 PF3D7_… atp6  atp6-Ala623G… missense_v… A623E     Yes             2
#>  5 D10-JJJ-… PF3D7_… atp6  atp6-Ala623G… missense_v… A623E     Yes             1
#>  6 D10-JJJ-… PF3D7_… atp6  atp6-Ala623G… missense_v… A623E     Yes           129
#>  7 D10-JJJ-… PF3D7_… atp6  atp6-Ala623G… missense_v… A623E     Yes             0
#>  8 D10-JJJ-… PF3D7_… atp6  atp6-Ala623G… missense_v… A623E     Yes             0
#>  9 D10-JJJ-… PF3D7_… atp6  atp6-Ala623G… missense_v… A623E     Yes            90
#> 10 D10-JJJ-… PF3D7_… atp6  atp6-Ala623G… missense_v… A623E     Yes           175
#> # … with 6,334 more rows

Sort

In plotting data, it is useful to be able to control the order in which data appears. While dplyr::arrange() provides the functionality to sort numeric or character data, it lacks the ability to naturally sort alphanumeric vectors, vectors containing both letters and numerics. Furthermore, the ordering of data is not kept when fed into plotting functions. arrange_natural() attempts to address these limitations.

arrange_natural(data, sample, gene)
#> # A tibble: 6,344 × 8
#>    sample    gene_id gene  mutation_name exonic_func aa_change targeted coverage
#>    <fct>     <chr>   <fct> <chr>         <chr>       <chr>     <chr>       <dbl>
#>  1 D10-JJJ-1 PF3D7_… atp6  atp6-Ala623G… missense_v… Ala623Glu Yes            10
#>  2 D10-JJJ-1 PF3D7_… atp6  atp6-Glu431L… missense_v… Glu431Lys Yes             5
#>  3 D10-JJJ-1 PF3D7_… atp6  atp6-Gly639A… missense_v… Gly639Asp No             10
#>  4 D10-JJJ-1 PF3D7_… atp6  atp6-Ser466A… missense_v… Ser466Asn No              2
#>  5 D10-JJJ-1 PF3D7_… atp6  atp6-Ser769A… missense_v… Ser769Asn Yes             1
#>  6 D10-JJJ-1 PF3D7_… crt   crt-Ala220Ser missense_v… Ala220Ser Yes             2
#>  7 D10-JJJ-1 PF3D7_… crt   crt-Asn326Asp missense_v… Asn326Asp No              2
#>  8 D10-JJJ-1 PF3D7_… crt   crt-Asn326Ser missense_v… Asn326Ser Yes             2
#>  9 D10-JJJ-1 PF3D7_… crt   crt-Asn75Glu  missense_v… Asn75Glu  Yes             0
#> 10 D10-JJJ-1 PF3D7_… crt   crt-Cys72Ser  missense_v… Cys72Ser  Yes             0
#> # … with 6,334 more rows
…
