Read data — read • miplicorn
…
    Examples

# Get path to example file
ref_file <- miplicorn_example("reference_AA_table.csv")
alt_file <- miplicorn_example("alternate_AA_table.csv")
cov_file <- miplicorn_example("coverage_AA_table.csv")
ref_file

#> [1] "/home/runner/work/_temp/Library/miplicorn/extdata/reference_AA_table.csv"

# Input sources -------------------------------------------------------------
# Read from a path
read_file(ref_file, .name = "umi")

#> # A tibble: 6,344 × 8
#>    sample     gene_id  gene  mutation_name  exonic_func aa_change targeted   umi
#>    <chr>      <chr>    <chr> <chr>          <chr>       <chr>     <chr>    <dbl>
#>  1 D10-JJJ-23 PF3D7_0… atp6  atp6-Ala623Glu missense_v… Ala623Glu Yes        608
#>  2 D10-JJJ-43 PF3D7_0… atp6  atp6-Ala623Glu missense_v… Ala623Glu Yes         20
#>  3 D10-JJJ-55 PF3D7_0… atp6  atp6-Ala623Glu missense_v… Ala623Glu Yes        158
#>  4 D10-JJJ-5  PF3D7_0… atp6  atp6-Ala623Glu missense_v… Ala623Glu Yes          2
#>  5 D10-JJJ-47 PF3D7_0… atp6  atp6-Ala623Glu missense_v… Ala623Glu Yes          1
#>  6 D10-JJJ-15 PF3D7_0… atp6  atp6-Ala623Glu missense_v… Ala623Glu Yes        129
#>  7 D10-JJJ-27 PF3D7_0… atp6  atp6-Ala623Glu missense_v… Ala623Glu Yes          0
#>  8 D10-JJJ-10 PF3D7_0… atp6  atp6-Ala623Glu missense_v… Ala623Glu Yes          0
#>  9 D10-JJJ-28 PF3D7_0… atp6  atp6-Ala623Glu missense_v… Ala623Glu Yes         90
#> 10 D10-JJJ-52 PF3D7_0… atp6  atp6-Ala623Glu missense_v… Ala623Glu Yes        175
#> # … with 6,334 more rows
read(ref_file, alt_file, cov_file)

#> # A tibble: 6,344 × 10
#>    sample     gene_id       gene  mutation_name  exonic_func  aa_change targeted
#>    <chr>      <chr>         <chr> <chr>          <chr>        <chr>     <chr>   
#>  1 D10-JJJ-23 PF3D7_0106300 atp6  atp6-Ala623Glu missense_va… Ala623Glu Yes     
#>  2 D10-JJJ-43 PF3D7_0106300 atp6  atp6-Ala623Glu missense_va… Ala623Glu Yes     
#>  3 D10-JJJ-55 PF3D7_0106300 atp6  atp6-Ala623Glu missense_va… Ala623Glu Yes     
#>  4 D10-JJJ-5  PF3D7_0106300 atp6  atp6-Ala623Glu missense_va… Ala623Glu Yes     
#>  5 D10-JJJ-47 PF3D7_0106300 atp6  atp6-Ala623Glu missense_va… Ala623Glu Yes     
#>  6 D10-JJJ-15 PF3D7_0106300 atp6  atp6-Ala623Glu missense_va… Ala623Glu Yes     
#>  7 D10-JJJ-27 PF3D7_0106300 atp6  atp6-Ala623Glu missense_va… Ala623Glu Yes     
#>  8 D10-JJJ-10 PF3D7_0106300 atp6  atp6-Ala623Glu missense_va… Ala623Glu Yes     
#>  9 D10-JJJ-28 PF3D7_0106300 atp6  atp6-Ala623Glu missense_va… Ala623Glu Yes     
#> 10 D10-JJJ-52 PF3D7_0106300 atp6  atp6-Ala623Glu missense_va… Ala623Glu Yes     
#> # … with 6,334 more rows, and 3 more variables: ref_umi_count <dbl>,
#> #   alt_umit_count <dbl>, coverage <dbl>

# You can also use paths directly
# read_file("reference_AA_table.csv")
# read("reference_AA_table.csv", "alternate_AA_table.csv", "coverage_AA_table.csv")

# Read entire file ----------------------------------------------------------
read_file(ref_file, .name = "umi")

#> # A tibble: 6,344 × 8
#>    sample     gene_id  gene  mutation_name  exonic_func aa_change targeted   umi
#>    <chr>      <chr>    <chr> <chr>          <chr>       <chr>     <chr>    <dbl>
#>  1 D10-JJJ-23 PF3D7_0… atp6  atp6-Ala623Glu missense_v… Ala623Glu Yes        608
#>  2 D10-JJJ-43 PF3D7_0… atp6  atp6-Ala623Glu missense_v… Ala623Glu Yes         20
#>  3 D10-JJJ-55 PF3D7_0… atp6  atp6-Ala623Glu missense_v… Ala623Glu Yes        158
#>  4 D10-JJJ-5  PF3D7_0… atp6  atp6-Ala623Glu missense_v… Ala623Glu Yes          2
#>  5 D10-JJJ-47 PF3D7_0… atp6  atp6-Ala623Glu missense_v… Ala623Glu Yes          1
#>  6 D10-JJJ-15 PF3D7_0… atp6  atp6-Ala623Glu missense_v… Ala623Glu Yes        129
#>  7 D10-JJJ-27 PF3D7_0… atp6  atp6-Ala623Glu missense_v… Ala623Glu Yes          0
#>  8 D10-JJJ-10 PF3D7_0… atp6  atp6-Ala623Glu missense_v… Ala623Glu Yes          0
#>  9 D10-JJJ-28 PF3D7_0… atp6  atp6-Ala623Glu missense_v… Ala623Glu Yes         90
#> 10 D10-JJJ-52 PF3D7_0… atp6  atp6-Ala623Glu missense_v… Ala623Glu Yes        175
#> # … with 6,334 more rows
read(ref_file, alt_file, cov_file)

#> # A tibble: 6,344 × 10
#>    sample     gene_id       gene  mutation_name  exonic_func  aa_change targeted
#>    <chr>      <chr>         <chr> <chr>          <chr>        <chr>     <chr>   
#>  1 D10-JJJ-23 PF3D7_0106300 atp6  atp6-Ala623Glu missense_va… Ala623Glu Yes     
#>  2 D10-JJJ-43 PF3D7_0106300 atp6  atp6-Ala623Glu missense_va… Ala623Glu Yes     
#>  3 D10-JJJ-55 PF3D7_0106300 atp6  atp6-Ala623Glu missense_va… Ala623Glu Yes     
#>  4 D10-JJJ-5  PF3D7_0106300 atp6  atp6-Ala623Glu missense_va… Ala623Glu Yes     
#>  5 D10-JJJ-47 PF3D7_0106300 atp6  atp6-Ala623Glu missense_va… Ala623Glu Yes     
#>  6 D10-JJJ-15 PF3D7_0106300 atp6  atp6-Ala623Glu missense_va… Ala623Glu Yes     
#>  7 D10-JJJ-27 PF3D7_0106300 atp6  atp6-Ala623Glu missense_va… Ala623Glu Yes     
#>  8 D10-JJJ-10 PF3D7_0106300 atp6  atp6-Ala623Glu missense_va… Ala623Glu Yes     
#>  9 D10-JJJ-28 PF3D7_0106300 atp6  atp6-Ala623Glu missense_va… Ala623Glu Yes     
#> 10 D10-JJJ-52 PF3D7_0106300 atp6  atp6-Ala623Glu missense_va… Ala623Glu Yes     
#> # … with 6,334 more rows, and 3 more variables: ref_umi_count <dbl>,
#> #   alt_umit_count <dbl>, coverage <dbl>

# Data filtering ------------------------------------------------------------
# Filtering by one criterion
read_file(ref_file, gene == "atp6", .name = "umi")

#> # A tibble: 260 × 8
#>    sample     gene_id  gene  mutation_name  exonic_func aa_change targeted   umi
#>    <chr>      <chr>    <chr> <chr>          <chr>       <chr>     <chr>    <dbl>
#>  1 D10-JJJ-23 PF3D7_0… atp6  atp6-Ala623Glu missense_v… Ala623Glu Yes        608
#>  2 D10-JJJ-43 PF3D7_0… atp6  atp6-Ala623Glu missense_v… Ala623Glu Yes         20
#>  3 D10-JJJ-55 PF3D7_0… atp6  atp6-Ala623Glu missense_v… Ala623Glu Yes        158
#>  4 D10-JJJ-5  PF3D7_0… atp6  atp6-Ala623Glu missense_v… Ala623Glu Yes          2
#>  5 D10-JJJ-47 PF3D7_0… atp6  atp6-Ala623Glu missense_v… Ala623Glu Yes          1
#>  6 D10-JJJ-15 PF3D7_0… atp6  atp6-Ala623Glu missense_v… Ala623Glu Yes        129
#>  7 D10-JJJ-27 PF3D7_0… atp6  atp6-Ala623Glu missense_v… Ala623Glu Yes          0
#>  8 D10-JJJ-10 PF3D7_0… atp6  atp6-Ala623Glu missense_v… Ala623Glu Yes          0
#>  9 D10-JJJ-28 PF3D7_0… atp6  atp6-Ala623Glu missense_v… Ala623Glu Yes         90
#> 10 D10-JJJ-52 PF3D7_0… atp6  atp6-Ala623Glu missense_v… Ala623Glu Yes        175
#> # … with 250 more rows
read(ref_file, alt_file, cov_file, gene == "atp6")

#> # A tibble: 260 × 10
#>    sample     gene_id       gene  mutation_name  exonic_func  aa_change targeted
#>    <chr>      <chr>         <chr> <chr>          <chr>        <chr>     <chr>   
#>  1 D10-JJJ-23 PF3D7_0106300 atp6  atp6-Ala623Glu missense_va… Ala623Glu Yes     
#>  2 D10-JJJ-43 PF3D7_0106300 atp6  atp6-Ala623Glu missense_va… Ala623Glu Yes     
#>  3 D10-JJJ-55 PF3D7_0106300 atp6  atp6-Ala623Glu missense_va… Ala623Glu Yes     
#>  4 D10-JJJ-5  PF3D7_0106300 atp6  atp6-Ala623Glu missense_va… Ala623Glu Yes     
#>  5 D10-JJJ-47 PF3D7_0106300 atp6  atp6-Ala623Glu missense_va… Ala623Glu Yes     
#>  6 D10-JJJ-15 PF3D7_0106300 atp6  atp6-Ala623Glu missense_va… Ala623Glu Yes     
#>  7 D10-JJJ-27 PF3D7_0106300 atp6  atp6-Ala623Glu missense_va… Ala623Glu Yes     
#>  8 D10-JJJ-10 PF3D7_0106300 atp6  atp6-Ala623Glu missense_va… Ala623Glu Yes     
#>  9 D10-JJJ-28 PF3D7_0106300 atp6  atp6-Ala623Glu missense_va… Ala623Glu Yes     
#> 10 D10-JJJ-52 PF3D7_0106300 atp6  atp6-Ala623Glu missense_va… Ala623Glu Yes     
#> # … with 250 more rows, and 3 more variables: ref_umi_count <dbl>,
#> #   alt_umit_count <dbl>, coverage <dbl>

# Filtering by multiple criteria within a single logical expression
read_file(ref_file, gene == "atp6" & targeted == "Yes", .name = "umi")

#> # A tibble: 156 × 8
#>    sample     gene_id  gene  mutation_name  exonic_func aa_change targeted   umi
#>    <chr>      <chr>    <chr> <chr>          <chr>       <chr>     <chr>    <dbl>
#>  1 D10-JJJ-23 PF3D7_0… atp6  atp6-Ala623Glu missense_v… Ala623Glu Yes        608
#>  2 D10-JJJ-43 PF3D7_0… atp6  atp6-Ala623Glu missense_v… Ala623Glu Yes         20
#>  3 D10-JJJ-55 PF3D7_0… atp6  atp6-Ala623Glu missense_v… Ala623Glu Yes        158
#>  4 D10-JJJ-5  PF3D7_0… atp6  atp6-Ala623Glu missense_v… Ala623Glu Yes          2
#>  5 D10-JJJ-47 PF3D7_0… atp6  atp6-Ala623Glu missense_v… Ala623Glu Yes          1
#>  6 D10-JJJ-15 PF3D7_0… atp6  atp6-Ala623Glu missense_v… Ala623Glu Yes        129
#>  7 D10-JJJ-27 PF3D7_0… atp6  atp6-Ala623Glu missense_v… Ala623Glu Yes          0
#>  8 D10-JJJ-10 PF3D7_0… atp6  atp6-Ala623Glu missense_v… Ala623Glu Yes          0
#>  9 D10-JJJ-28 PF3D7_0… atp6  atp6-Ala623Glu missense_v… Ala623Glu Yes         90
#> 10 D10-JJJ-52 PF3D7_0… atp6  atp6-Ala623Glu missense_v… Ala623Glu Yes        175
#> # … with 146 more rows
read_file(ref_file, gene == "atp6" | targeted == "Yes", .name = "umi")

#> # A tibble: 2,496 × 8
#>    sample     gene_id  gene  mutation_name  exonic_func aa_change targeted   umi
#>    <chr>      <chr>    <chr> <chr>          <chr>       <chr>     <chr>    <dbl>
#>  1 D10-JJJ-23 PF3D7_0… atp6  atp6-Ala623Glu missense_v… Ala623Glu Yes        608
#>  2 D10-JJJ-43 PF3D7_0… atp6  atp6-Ala623Glu missense_v… Ala623Glu Yes         20
#>  3 D10-JJJ-55 PF3D7_0… atp6  atp6-Ala623Glu missense_v… Ala623Glu Yes        158
#>  4 D10-JJJ-5  PF3D7_0… atp6  atp6-Ala623Glu missense_v… Ala623Glu Yes          2
#>  5 D10-JJJ-47 PF3D7_0… atp6  atp6-Ala623Glu missense_v… Ala623Glu Yes          1
#>  6 D10-JJJ-15 PF3D7_0… atp6  atp6-Ala623Glu missense_v… Ala623Glu Yes        129
#>  7 D10-JJJ-27 PF3D7_0… atp6  atp6-Ala623Glu missense_v… Ala623Glu Yes          0
#>  8 D10-JJJ-10 PF3D7_0… atp6  atp6-Ala623Glu missense_v… Ala623Glu Yes          0
#>  9 D10-JJJ-28 PF3D7_0… atp6  atp6-Ala623Glu missense_v… Ala623Glu Yes         90
#> 10 D10-JJJ-52 PF3D7_0… atp6  atp6-Ala623Glu missense_v… Ala623Glu Yes        175
#> # … with 2,486 more rows
read(ref_file, alt_file, cov_file, gene == "atp6" & targeted == "Yes")

#> # A tibble: 156 × 10
#>    sample     gene_id       gene  mutation_name  exonic_func  aa_change targeted
#>    <chr>      <chr>         <chr> <chr>          <chr>        <chr>     <chr>   
#>  1 D10-JJJ-23 PF3D7_0106300 atp6  atp6-Ala623Glu missense_va… Ala623Glu Yes     
#>  2 D10-JJJ-43 PF3D7_0106300 atp6  atp6-Ala623Glu missense_va… Ala623Glu Yes     
#>  3 D10-JJJ-55 PF3D7_0106300 atp6  atp6-Ala623Glu missense_va… Ala623Glu Yes     
#>  4 D10-JJJ-5  PF3D7_0106300 atp6  atp6-Ala623Glu missense_va… Ala623Glu Yes     
#>  5 D10-JJJ-47 PF3D7_0106300 atp6  atp6-Ala623Glu missense_va… Ala623Glu Yes     
#>  6 D10-JJJ-15 PF3D7_0106300 atp6  atp6-Ala623Glu missense_va… Ala623Glu Yes     
#>  7 D10-JJJ-27 PF3D7_0106300 atp6  atp6-Ala623Glu missense_va… Ala623Glu Yes     
#>  8 D10-JJJ-10 PF3D7_0106300 atp6  atp6-Ala623Glu missense_va… Ala623Glu Yes     
#>  9 D10-JJJ-28 PF3D7_0106300 atp6  atp6-Ala623Glu missense_va… Ala623Glu Yes     
#> 10 D10-JJJ-52 PF3D7_0106300 atp6  atp6-Ala623Glu missense_va… Ala623Glu Yes     
#> # … with 146 more rows, and 3 more variables: ref_umi_count <dbl>,
#> #   alt_umit_count <dbl>, coverage <dbl>
read(ref_file, alt_file, cov_file, gene == "atp6" | targeted == "Yes")

#> # A tibble: 2,496 × 10
#>    sample     gene_id       gene  mutation_name  exonic_func  aa_change targeted
#>    <chr>      <chr>         <chr> <chr>          <chr>        <chr>     <chr>   
#>  1 D10-JJJ-23 PF3D7_0106300 atp6  atp6-Ala623Glu missense_va… Ala623Glu Yes     
#>  2 D10-JJJ-43 PF3D7_0106300 atp6  atp6-Ala623Glu missense_va… Ala623Glu Yes     
#>  3 D10-JJJ-55 PF3D7_0106300 atp6  atp6-Ala623Glu missense_va… Ala623Glu Yes     
#>  4 D10-JJJ-5  PF3D7_0106300 atp6  atp6-Ala623Glu missense_va… Ala623Glu Yes     
#>  5 D10-JJJ-47 PF3D7_0106300 atp6  atp6-Ala623Glu missense_va… Ala623Glu Yes     
#>  6 D10-JJJ-15 PF3D7_0106300 atp6  atp6-Ala623Glu missense_va… Ala623Glu Yes     
#>  7 D10-JJJ-27 PF3D7_0106300 atp6  atp6-Ala623Glu missense_va… Ala623Glu Yes     
#>  8 D10-JJJ-10 PF3D7_0106300 atp6  atp6-Ala623Glu missense_va… Ala623Glu Yes     
#>  9 D10-JJJ-28 PF3D7_0106300 atp6  atp6-Ala623Glu missense_va… Ala623Glu Yes     
#> 10 D10-JJJ-52 PF3D7_0106300 atp6  atp6-Ala623Glu missense_va… Ala623Glu Yes     
#> # … with 2,486 more rows, and 3 more variables: ref_umi_count <dbl>,
#> #   alt_umit_count <dbl>, coverage <dbl>

# When multiple expressions are used, they are combined using &
read_file(ref_file, gene == "atp6", targeted == "Yes", .name = "umi")

#> # A tibble: 156 × 8
#>    sample     gene_id  gene  mutation_name  exonic_func aa_change targeted   umi
#>    <chr>      <chr>    <chr> <chr>          <chr>       <chr>     <chr>    <dbl>
#>  1 D10-JJJ-23 PF3D7_0… atp6  atp6-Ala623Glu missense_v… Ala623Glu Yes        608
#>  2 D10-JJJ-43 PF3D7_0… atp6  atp6-Ala623Glu missense_v… Ala623Glu Yes         20
#>  3 D10-JJJ-55 PF3D7_0… atp6  atp6-Ala623Glu missense_v… Ala623Glu Yes        158
#>  4 D10-JJJ-5  PF3D7_0… atp6  atp6-Ala623Glu missense_v… Ala623Glu Yes          2
#>  5 D10-JJJ-47 PF3D7_0… atp6  atp6-Ala623Glu missense_v… Ala623Glu Yes          1
#>  6 D10-JJJ-15 PF3D7_0… atp6  atp6-Ala623Glu missense_v… Ala623Glu Yes        129
#>  7 D10-JJJ-27 PF3D7_0… atp6  atp6-Ala623Glu missense_v… Ala623Glu Yes          0
#>  8 D10-JJJ-10 PF3D7_0… atp6  atp6-Ala623Glu missense_v… Ala623Glu Yes          0
#>  9 D10-JJJ-28 PF3D7_0… atp6  atp6-Ala623Glu missense_v… Ala623Glu Yes         90
#> 10 D10-JJJ-52 PF3D7_0… atp6  atp6-Ala623Glu missense_v… Ala623Glu Yes        175
#> # … with 146 more rows
read(ref_file, alt_file, cov_file, gene == "atp6", targeted == "Yes")

#> # A tibble: 156 × 10
#>    sample     gene_id       gene  mutation_name  exonic_func  aa_change targeted
#>    <chr>      <chr>         <chr> <chr>          <chr>        <chr>     <chr>   
#>  1 D10-JJJ-23 PF3D7_0106300 atp6  atp6-Ala623Glu missense_va… Ala623Glu Yes     
#>  2 D10-JJJ-43 PF3D7_0106300 atp6  atp6-Ala623Glu missense_va… Ala623Glu Yes     
#>  3 D10-JJJ-55 PF3D7_0106300 atp6  atp6-Ala623Glu missense_va… Ala623Glu Yes     
#>  4 D10-JJJ-5  PF3D7_0106300 atp6  atp6-Ala623Glu missense_va… Ala623Glu Yes     
#>  5 D10-JJJ-47 PF3D7_0106300 atp6  atp6-Ala623Glu missense_va… Ala623Glu Yes     
#>  6 D10-JJJ-15 PF3D7_0106300 atp6  atp6-Ala623Glu missense_va… Ala623Glu Yes     
#>  7 D10-JJJ-27 PF3D7_0106300 atp6  atp6-Ala623Glu missense_va… Ala623Glu Yes     
#>  8 D10-JJJ-10 PF3D7_0106300 atp6  atp6-Ala623Glu missense_va… Ala623Glu Yes     
#>  9 D10-JJJ-28 PF3D7_0106300 atp6  atp6-Ala623Glu missense_va… Ala623Glu Yes     
#> 10 D10-JJJ-52 PF3D7_0106300 atp6  atp6-Ala623Glu missense_va… Ala623Glu Yes     
#> # … with 146 more rows, and 3 more variables: ref_umi_count <dbl>,
#> #   alt_umit_count <dbl>, coverage <dbl>
…
