Read MIPTools tables — read-tbl • miplicorn
…
    vroom::vroom() dplyr::filter()

    Examples

# Get path to example file
ref_file <- miplicorn_example("reference_AA_table.csv")
alt_file <- miplicorn_example("alternate_AA_table.csv")
cov_file <- miplicorn_example("coverage_AA_table.csv")
ref_file
#> [1] "/home/runner/work/_temp/Library/miplicorn/extdata/reference_AA_table.csv"

# Input sources -------------------------------------------------------------
# Read from a path
read_tbl_reference(ref_file)
#> # A tibble: 6,344 × 8
#>    sample     gene_id       gene  mutation_name  exonic_func  aa_change targeted
#>    <chr>      <chr>         <chr> <chr>          <chr>        <chr>     <chr>   
#>  1 d10_jjj_23 PF3D7_0106300 atp6  atp6-Ala623Glu missense_va… Ala623Glu Yes     
#>  2 d10_jjj_43 PF3D7_0106300 atp6  atp6-Ala623Glu missense_va… Ala623Glu Yes     
#>  3 d10_jjj_55 PF3D7_0106300 atp6  atp6-Ala623Glu missense_va… Ala623Glu Yes     
#>  4 d10_jjj_5  PF3D7_0106300 atp6  atp6-Ala623Glu missense_va… Ala623Glu Yes     
#>  5 d10_jjj_47 PF3D7_0106300 atp6  atp6-Ala623Glu missense_va… Ala623Glu Yes     
#>  6 d10_jjj_15 PF3D7_0106300 atp6  atp6-Ala623Glu missense_va… Ala623Glu Yes     
#>  7 d10_jjj_27 PF3D7_0106300 atp6  atp6-Ala623Glu missense_va… Ala623Glu Yes     
#>  8 d10_jjj_10 PF3D7_0106300 atp6  atp6-Ala623Glu missense_va… Ala623Glu Yes     
#>  9 d10_jjj_28 PF3D7_0106300 atp6  atp6-Ala623Glu missense_va… Ala623Glu Yes     
#> 10 d10_jjj_52 PF3D7_0106300 atp6  atp6-Ala623Glu missense_va… Ala623Glu Yes     
#> # … with 6,334 more rows, and 1 more variable: ref_umi_count <dbl>

# You can also use paths directly
# read_tbl_alternate("alternate_AA_table.csv")

# Read entire file ----------------------------------------------------------
read_tbl_coverage(cov_file)
#> # A tibble: 6,344 × 8
#>    sample  gene_id   gene  mutation_name exonic_func aa_change targeted coverage
#>    <chr>   <chr>     <chr> <chr>         <chr>       <chr>     <chr>       <dbl>
#>  1 d10_jj… PF3D7_01… atp6  atp6-Ala623G… missense_v… Ala623Glu Yes           608
#>  2 d10_jj… PF3D7_01… atp6  atp6-Ala623G… missense_v… Ala623Glu Yes            20
#>  3 d10_jj… PF3D7_01… atp6  atp6-Ala623G… missense_v… Ala623Glu Yes           158
#>  4 d10_jj… PF3D7_01… atp6  atp6-Ala623G… missense_v… Ala623Glu Yes             2
#>  5 d10_jj… PF3D7_01… atp6  atp6-Ala623G… missense_v… Ala623Glu Yes             1
#>  6 d10_jj… PF3D7_01… atp6  atp6-Ala623G… missense_v… Ala623Glu Yes           129
#>  7 d10_jj… PF3D7_01… atp6  atp6-Ala623G… missense_v… Ala623Glu Yes             0
#>  8 d10_jj… PF3D7_01… atp6  atp6-Ala623G… missense_v… Ala623Glu Yes             0
#>  9 d10_jj… PF3D7_01… atp6  atp6-Ala623G… missense_v… Ala623Glu Yes            90
#> 10 d10_jj… PF3D7_01… atp6  atp6-Ala623G… missense_v… Ala623Glu Yes           175
#> # … with 6,334 more rows

# Data filtering ------------------------------------------------------------
# Filtering by one criterion
read_tbl_reference(ref_file, gene == "atp6")
#> # A tibble: 260 × 8
#>    sample     gene_id       gene  mutation_name  exonic_func  aa_change targeted
#>    <chr>      <chr>         <chr> <chr>          <chr>        <chr>     <chr>   
#>  1 d10_jjj_23 PF3D7_0106300 atp6  atp6-Ala623Glu missense_va… Ala623Glu Yes     
#>  2 d10_jjj_43 PF3D7_0106300 atp6  atp6-Ala623Glu missense_va… Ala623Glu Yes     
#>  3 d10_jjj_55 PF3D7_0106300 atp6  atp6-Ala623Glu missense_va… Ala623Glu Yes     
#>  4 d10_jjj_5  PF3D7_0106300 atp6  atp6-Ala623Glu missense_va… Ala623Glu Yes     
#>  5 d10_jjj_47 PF3D7_0106300 atp6  atp6-Ala623Glu missense_va… Ala623Glu Yes     
#>  6 d10_jjj_15 PF3D7_0106300 atp6  atp6-Ala623Glu missense_va… Ala623Glu Yes     
#>  7 d10_jjj_27 PF3D7_0106300 atp6  atp6-Ala623Glu missense_va… Ala623Glu Yes     
#>  8 d10_jjj_10 PF3D7_0106300 atp6  atp6-Ala623Glu missense_va… Ala623Glu Yes     
#>  9 d10_jjj_28 PF3D7_0106300 atp6  atp6-Ala623Glu missense_va… Ala623Glu Yes     
#> 10 d10_jjj_52 PF3D7_0106300 atp6  atp6-Ala623Glu missense_va… Ala623Glu Yes     
#> # … with 250 more rows, and 1 more variable: ref_umi_count <dbl>

# Filtering by multiple criteria within a single logical expression
read_tbl_alternate(alt_file, gene == "atp6" & targeted == "Yes")
#> # A tibble: 156 × 8
#>    sample     gene_id       gene  mutation_name  exonic_func  aa_change targeted
#>    <chr>      <chr>         <chr> <chr>          <chr>        <chr>     <chr>   
#>  1 d10_jjj_23 PF3D7_0106300 atp6  atp6-Ala623Glu missense_va… Ala623Glu Yes     
#>  2 d10_jjj_43 PF3D7_0106300 atp6  atp6-Ala623Glu missense_va… Ala623Glu Yes     
#>  3 d10_jjj_55 PF3D7_0106300 atp6  atp6-Ala623Glu missense_va… Ala623Glu Yes     
#>  4 d10_jjj_5  PF3D7_0106300 atp6  atp6-Ala623Glu missense_va… Ala623Glu Yes     
#>  5 d10_jjj_47 PF3D7_0106300 atp6  atp6-Ala623Glu missense_va… Ala623Glu Yes     
#>  6 d10_jjj_15 PF3D7_0106300 atp6  atp6-Ala623Glu missense_va… Ala623Glu Yes     
#>  7 d10_jjj_27 PF3D7_0106300 atp6  atp6-Ala623Glu missense_va… Ala623Glu Yes     
#>  8 d10_jjj_10 PF3D7_0106300 atp6  atp6-Ala623Glu missense_va… Ala623Glu Yes     
#>  9 d10_jjj_28 PF3D7_0106300 atp6  atp6-Ala623Glu missense_va… Ala623Glu Yes     
#> 10 d10_jjj_52 PF3D7_0106300 atp6  atp6-Ala623Glu missense_va… Ala623Glu Yes     
#> # … with 146 more rows, and 1 more variable: alt_umi_count <dbl>
read_tbl_coverage(cov_file, gene == "atp6" | targeted == "Yes")
#> # A tibble: 2,496 × 8
#>    sample  gene_id   gene  mutation_name exonic_func aa_change targeted coverage
#>    <chr>   <chr>     <chr> <chr>         <chr>       <chr>     <chr>       <dbl>
#>  1 d10_jj… PF3D7_01… atp6  atp6-Ala623G… missense_v… Ala623Glu Yes           608
#>  2 d10_jj… PF3D7_01… atp6  atp6-Ala623G… missense_v… Ala623Glu Yes            20
#>  3 d10_jj… PF3D7_01… atp6  atp6-Ala623G… missense_v… Ala623Glu Yes           158
#>  4 d10_jj… PF3D7_01… atp6  atp6-Ala623G… missense_v… Ala623Glu Yes             2
#>  5 d10_jj… PF3D7_01… atp6  atp6-Ala623G… missense_v… Ala623Glu Yes             1
#>  6 d10_jj… PF3D7_01… atp6  atp6-Ala623G… missense_v… Ala623Glu Yes           129
#>  7 d10_jj… PF3D7_01… atp6  atp6-Ala623G… missense_v… Ala623Glu Yes             0
#>  8 d10_jj… PF3D7_01… atp6  atp6-Ala623G… missense_v… Ala623Glu Yes             0
#>  9 d10_jj… PF3D7_01… atp6  atp6-Ala623G… missense_v… Ala623Glu Yes            90
#> 10 d10_jj… PF3D7_01… atp6  atp6-Ala623G… missense_v… Ala623Glu Yes           175
#> # … with 2,486 more rows

# When multiple expressions are used, they are combined using &
read_tbl_reference(ref_file, gene == "atp6", targeted == "Yes")
#> # A tibble: 156 × 8
#>    sample     gene_id       gene  mutation_name  exonic_func  aa_change targeted
#>    <chr>      <chr>         <chr> <chr>          <chr>        <chr>     <chr>   
#>  1 d10_jjj_23 PF3D7_0106300 atp6  atp6-Ala623Glu missense_va… Ala623Glu Yes     
#>  2 d10_jjj_43 PF3D7_0106300 atp6  atp6-Ala623Glu missense_va… Ala623Glu Yes     
#>  3 d10_jjj_55 PF3D7_0106300 atp6  atp6-Ala623Glu missense_va… Ala623Glu Yes     
#>  4 d10_jjj_5  PF3D7_0106300 atp6  atp6-Ala623Glu missense_va… Ala623Glu Yes     
#>  5 d10_jjj_47 PF3D7_0106300 atp6  atp6-Ala623Glu missense_va… Ala623Glu Yes     
#>  6 d10_jjj_15 PF3D7_0106300 atp6  atp6-Ala623Glu missense_va… Ala623Glu Yes     
#>  7 d10_jjj_27 PF3D7_0106300 atp6  atp6-Ala623Glu missense_va… Ala623Glu Yes     
#>  8 d10_jjj_10 PF3D7_0106300 atp6  atp6-Ala623Glu missense_va… Ala623Glu Yes     
#>  9 d10_jjj_28 PF3D7_0106300 atp6  atp6-Ala623Glu missense_va… Ala623Glu Yes     
#> 10 d10_jjj_52 PF3D7_0106300 atp6  atp6-Ala623Glu missense_va… Ala623Glu Yes     
#> # … with 146 more rows, and 1 more variable: ref_umi_count <dbl>

# Read multiple files together ----------------------------------------------
read_tbl_ref_alt_cov(ref_file, alt_file, cov_file)
#> # A tibble: 6,344 × 10
#>    sample     gene_id       gene  mutation_name  exonic_func  aa_change targeted
#>    <chr>      <chr>         <chr> <chr>          <chr>        <chr>     <chr>   
#>  1 d10_jjj_23 PF3D7_0106300 atp6  atp6-Ala623Glu missense_va… Ala623Glu Yes     
#>  2 d10_jjj_43 PF3D7_0106300 atp6  atp6-Ala623Glu missense_va… Ala623Glu Yes     
#>  3 d10_jjj_55 PF3D7_0106300 atp6  atp6-Ala623Glu missense_va… Ala623Glu Yes     
#>  4 d10_jjj_5  PF3D7_0106300 atp6  atp6-Ala623Glu missense_va… Ala623Glu Yes     
#>  5 d10_jjj_47 PF3D7_0106300 atp6  atp6-Ala623Glu missense_va… Ala623Glu Yes     
#>  6 d10_jjj_15 PF3D7_0106300 atp6  atp6-Ala623Glu missense_va… Ala623Glu Yes     
#>  7 d10_jjj_27 PF3D7_0106300 atp6  atp6-Ala623Glu missense_va… Ala623Glu Yes     
#>  8 d10_jjj_10 PF3D7_0106300 atp6  atp6-Ala623Glu missense_va… Ala623Glu Yes     
#>  9 d10_jjj_28 PF3D7_0106300 atp6  atp6-Ala623Glu missense_va… Ala623Glu Yes     
#> 10 d10_jjj_52 PF3D7_0106300 atp6  atp6-Ala623Glu missense_va… Ala623Glu Yes     
#> # … with 6,334 more rows, and 3 more variables: ref_umi_count <dbl>,
#> #   alt_umi_count <dbl>, coverage <dbl>
…
